<svg xmlns="http://www.w3.org/2000/svg" width="96" height="97" viewBox="0 0 96 97">
    <defs>
        <style>
            .cls-1{fill:#fff;stroke:#35bab6;stroke-linecap:round;stroke-linejoin:round;stroke-width:3px}.cls-2{fill:#35bab6}.cls-4{fill:#adadad}.cls-5{stroke:none}.cls-6{fill:none}
        </style>
    </defs>
    <g id="Grupo_7575" transform="translate(-911 -233)">
        <g id="Grupo_7574" transform="translate(0 22)">
            <g id="Retângulo_3588" class="cls-1">
                <path d="M0 0H45V22H0z" class="cls-5" transform="translate(952 221)"/>
                <path d="M1.5 1.5H43.5V20.5H1.5z" class="cls-6" transform="translate(952 221)"/>
            </g>
            <rect id="Retângulo_3589" width="28" height="4" class="cls-2" rx="2" transform="translate(952 228)"/>
            <g id="Retângulo_3587" class="cls-1">
                <path d="M0 0H24V32H0z" class="cls-5" transform="translate(937 211)"/>
                <path d="M1.5 1.5H22.5V30.5H1.5z" class="cls-6" transform="translate(937 211)"/>
            </g>
            <circle id="Elipse_673" cx="2" cy="2" r="2" class="cls-2" transform="translate(985 228)"/>
        </g>
        <path id="Caminho_5606" fill="#fff" d="M6350.394 14519.284h77.148l-7.373 39.4h-63.661z" transform="translate(-5423 -14254)"/>
        <path id="Caminho_5605" d="M88.47 71.236l7.5-40.9a1.875 1.875 0 0 0-1.844-2.213H16.675l-2.826-16.44A1.875 1.875 0 0 0 12 10.125H1.876A1.875 1.875 0 0 0 0 12v7.5a1.875 1.875 0 0 0 1.875 1.875h9.835l8.541 49.683V73.5a10.516 10.516 0 0 0 9.442 10.448A7.874 7.874 0 1 0 43.069 84h22.614a7.875 7.875 0 1 0 13.409 0h7.534a1.875 1.875 0 0 0 0-3.75H30.752A6.759 6.759 0 0 1 24 73.5v-.726h62.626a1.875 1.875 0 0 0 1.844-1.538zM3.751 17.625v-3.75h6.67l.645 3.75zM72.388 84a4.125 4.125 0 1 1-4.125 4.125A4.13 4.13 0 0 1 72.388 84zm-36.024 0a4.125 4.125 0 1 1-4.125 4.125A4.13 4.13 0 0 1 36.364 84zm48.7-14.977H23.706l-6.386-37.15h74.556z" class="cls-4" transform="translate(910.999 234)"/>
        <path id="Caminho_5599" d="M159.128 198a1.875 1.875 0 0 0-1.875 1.875V223.5a1.875 1.875 0 1 0 3.75 0v-23.624a1.875 1.875 0 0 0-1.875-1.876z" class="cls-4" transform="translate(783.232 73.124)"/>
        <path id="Caminho_5600" d="M239.128 198a1.875 1.875 0 0 0-1.875 1.875V223.5a1.875 1.875 0 1 0 3.75 0v-23.624a1.875 1.875 0 0 0-1.875-1.876z" class="cls-4" transform="translate(718.232 73.124)"/>
        <path id="Caminho_5601" d="M319.128 198a1.875 1.875 0 0 0-1.875 1.875V223.5a1.875 1.875 0 1 0 3.75 0v-23.624a1.875 1.875 0 0 0-1.875-1.876z" class="cls-4" transform="translate(653.232 73.124)"/>
        <path id="Caminho_5602" d="M399.128 198a1.875 1.875 0 0 0-1.875 1.875V223.5a1.875 1.875 0 1 0 3.75 0v-23.624a1.875 1.875 0 0 0-1.875-1.876z" class="cls-4" transform="translate(588.232 73.124)"/>
    </g>
</svg>
