<svg xmlns="http://www.w3.org/2000/svg" width="19.097" height="19.097" viewBox="0 0 19.097 19.097">
    <defs>
        <style>
            .cls-1{fill:none;stroke:#ffbb01;stroke-linecap:round;stroke-linejoin:round;stroke-width:1.5px}
        </style>
    </defs>
    <g id="Icon_feather-copy" transform="translate(.75 .75)">
        <path id="Caminho_2204" d="M15.228 13.5H23a1.728 1.728 0 0 1 1.728 1.728V23A1.728 1.728 0 0 1 23 24.73h-7.772A1.728 1.728 0 0 1 13.5 23v-7.772a1.728 1.728 0 0 1 1.728-1.728z" class="cls-1" transform="translate(-7.134 -7.134)"/>
        <path id="Caminho_2205" d="M5.592 14.23h-.864A1.728 1.728 0 0 1 3 12.5V4.728A1.728 1.728 0 0 1 4.728 3H12.5a1.728 1.728 0 0 1 1.73 1.728v.864" class="cls-1" transform="translate(-3 -3)"/>
    </g>
</svg>
