<svg xmlns="http://www.w3.org/2000/svg" width="116.657" height="116.657" viewBox="0 0 116.657 116.657">
    <path fill="#ffd95a" d="M47.624 0a47.625 47.625 0 1 1 0 95.25 4.016 4.016 0 0 1 0-8.033A39.592 39.592 0 1 0 8.033 47.625a4.016 4.016 0 1 1-8.033 0A47.679 47.679 0 0 1 47.624 0z" transform="rotate(165.02 52.265 53.683)"/>
</svg>
